11111111111111111111111111111111111111111111111111111111111111111111111111111111
11222222222222222222222222222222222222222222222222222222222222222222222222222221
11222222222222222222222222222222222222222222222222222222222222222222253222222221
11222222232222222222222222111112222222232422222222222243222222262222111122222221
11222221111112222222222222111112522111111111222222222111122211111222222222237221
11222221111112222222222228111112112111111111222111522111122211111223222222111221
11222221111112532232222111111112222111111111221111122221122211111221111222222221
11226201111111111111222111111112222111111111222222222221122211111222222222222221
11111111111111111111222111111112262111111111222222222222222211111222292232242321
11111111111111111111222111111111111111111111222322222222222211111111111111111111
11111111111111111111222111111111111111111111111111222222222222221111111111111111
11111111111111111111222111111111111111111111111111222232222222221111111111111111
12222222222222222222222222222222222222222222222111222111122224281111111111111111
1222*222222222222222222222222222222222222222222111222221122211111111111111111111
12222222222222222222222222222222234222223423222111222222222211111122222222222221
11111111122224232242222223222221111122111111122111223932222211111122222222222221
11111111122211111112222111111221111122222222222111111111122211111120222224222221
11111111122222222222222222222221111122222222222111111111122211111111111111112221
11111111122222222222222222222221111122222326222111111111122211111111111111112221
11111111124329225232222624325221111122111111122111111111122211111111111111112221
11111111111111111111222111111111111122222222222111111111122211111111111111112221
11111111111111111111222111111111111122222222222111222222222222222222222222222221
11111111111111111111222111111111111123282232242111222222222222222222222222222221
11111111111111111111222111111111111111111111111111222432222222252222223242222221
11111111111111111111222111111111111111111111111111222111122211111222111112222221
11111111112222222222222222222222221111111111111111222111122211111222222212232221
11111111112222222222222222222222221112222222222222222222222211111222222211112221
11111111112222222222222222222222221112222222222222222222222211111222222222222221
11111111112722322432223225223222421115223229222327222324322211111223232822222921
11111111111111111111111111111111111111111111111111111111111111111111111111111111